...............
----------------------------------------------------------------------
Ran 15 tests in 0.059s

OK
Name             Stmts   Miss Branch BrPart  Cover   Missing
------------------------------------------------------------
Collatz.py          39      0     14      0   100%
TestCollatz.py      67      0      0      0   100%
------------------------------------------------------------
TOTAL              106      0     14      0   100%
